individual1
…
individual1

Lab 3 - Madalyn Mueller

dat <- readxl::read_xls('/Users/maddiemueller/Desktop/GSS.xls')

## Warning in read_fun(path = enc2native(normalizePath(path)), sheet_i = sheet, :
## Expecting numeric in A64817 / R64817C1: got 'Source'

dat

## # A tibble: 64,816 x 10
##    `Gss year for t `General happin `Political part `Respondents se
##               <dbl> <chr>            <chr>            <chr>           
##  1             1972 Not too happy    Ind,near dem     Female          
##  2             1972 Not too happy    Not str democrat Male            
##  3             1972 Pretty happy     Independent      Female          
##  4             1972 Not too happy    Not str democrat Female          
##  5             1972 Pretty happy     Strong democrat  Female          
##  6             1972 Pretty happy     Ind,near dem     Male            
##  7             1972 Not too happy    Ind,near dem     Male            
##  8             1972 Not too happy    Ind,near dem     Male            
##  9             1972 Pretty happy     Strong democrat  Female          
## 10             1972 Pretty happy     Strong democrat  Female          
## #  with 64,806 more rows, and 6 more variables: `Highest year of school
## #   completed` <chr>, `Number of children` <chr>, `Marital status` <chr>,
## #   `Number of hours usually work a week` <chr>, `Respondent id number` <dbl>,
## #   `Ballot used for interview` <chr>
…
highed

## # A tibble: 0 x 10
## #  with 10 variables: gssyear <dbl>, happiness <chr>, party <chr>, sex <chr>,
## #   school <dbl>, kids <chr>, married <chr>, work <chr>, id <dbl>, ballot <chr>

3) How is the happiness of a respondent related to his/her marriage status? Define that a person is happy if the response to question is Very happy or Pretty happy.

dat %>% 
  group_by(married) %>% summarize(happiness)

## `summarise()` has grouped output by 'married'. You can override using the `.groups` argument.

## # A tibble: 64,637 x 2
## # Groups:   married [6]
##    married  happiness    
##    <chr>    <chr>        
##  1 Divorced Not too happy
##  2 Divorced Not too happy
##  3 Divorced Very happy   
##  4 Divorced Pretty happy 
##  5 Divorced Very happy   
##  6 Divorced Not too happy
##  7 Divorced Not too happy
##  8 Divorced Pretty happy 
##  9 Divorced Not too happy
## 10 Divorced Pretty happy 
## #  with 64,627 more rows
…
Most people, regardless of marital status, are happy. Married people seem to be the happiest people. They are also the largest column in the Not too happy graph. Those who were never married appear to be the second happiest people. It appears that happiness doesnt relate to marital status based on this data.

4) Does party affiliation affect the relationship you found in the last question?

dat %>% group_by(party) %>% count(happiness)

## # A tibble: 55 x 3
## # Groups:   party [10]
##    party        happiness          n
##    <chr>        <chr>          <int>
##  1 Don't know   Not too happy      3
##  2 Don't know   Pretty happy       3
##  3 Don't know   Very happy         5
##  4 Ind,near dem Don't know         4
##  5 Ind,near dem No answer         37
##  6 Ind,near dem Not applicable   438
##  7 Ind,near dem Not too happy   1062
##  8 Ind,near dem Pretty happy    4316
##  9 Ind,near dem Very happy      1922
## 10 Ind,near rep Don't know         4
## #  with 45 more rows
…
dat %>%
group_by(kids) %>%
count(happiness)

## # A tibble: 60 x 3
## # Groups:   kids [10]
##    kids  happiness          n
##    <chr> <chr>          <int>
##  1 0     Don't know         7
##  2 0     No answer        102
##  3 0     Not applicable  1155
##  4 0     Not too happy   2039
##  5 0     Pretty happy    9727
##  6 0     Very happy      4591
##  7 1     Don't know         3
##  8 1     No answer         47
##  9 1     Not applicable   748
## 10 1     Not too happy   1263
## #  with 50 more rows
…
